04 Prototype udvikling/2 akset rotation/05 H-bridge/Waveform data/overlap issue 10k res Q4 + U10.csv

#Digilent WaveForms Oscilloscope Acquisition
#Device Name: Discovery
#Serial Number: SN:210244626787
#Date Time: 2025-11-05 13:02:44.490
#Sample rate: 1e+08Hz
#Samples: 8192
#Trigger: Source: Channel 1 Type: Edge Condition: Rising Level: 2 V Hyst.: Auto HoldOff: 0 s
#Channel 1: Range: 5 V/div Offset: 0 V Sample Mode: Average
#Channel 2: Range: 5 V/div Offset: 0 V Sample Mode: Average

Time (s),Channel 1 (V),Channel 2 (V)
-4.095685185185185e-05,0.02518331481129643,-0.007382430743281081
-4.094685185185185e-05,0.02872236215800324,-0.01785087719375926
-4.093685185185185e-05,0.05703474093164964,-0.003892948593124863
-4.092685185185186e-05,0.0393395041981317,-0.0108719128934373
-4.091685185185185e-05,0.02518331481129643,-0.003892948593121689
-4.090685185185185e-05,0.02872236215800324,-0.01087191289344047
-4.089685185185185e-05,0.02872236215800324,-0.007382430743281081
-4.088685185185186e-05,0.03933950419811883,-0.003892948593123276
-4.087685185185185e-05,0.01810522011788282,-0.02134035934391865
-4.086685185185185e-05,0.03226140950471005,-0.01436139504359987
-4.085685185185185e-05,0.04287855154483047,-0.01436139504359987
-4.084685185185185e-05,0.02872236215800646,-0.01087191289344206
-4.083685185185185e-05,0.03580045685141686,-0.01436139504359987
-4.082685185185185e-05,0.02518331481129643,-0.01785087719375926
-4.081685185185185e-05,0.02518331481129643,-0.01436139504359987
-4.080685185185185e-05,0.03580045685141846,-0.02134035934390596
-4.079685185185185e-05,0.03933950419812205,0.006575497857343793
-4.078685185185185e-05,0.02164426746458963,-0.01785087719375926
-4.077685185185185e-05,0.04287855154483047,-0.01087191289344047
-4.076685185185185e-05,0.02164426746458158,-0.0178508771937418
-4.075685185185186e-05,0.003949030731063643,0.02053342645797659
-4.074685185185185e-05,0.02872236215800324,-0.03180880579439683
-4.073685185185185e-05,0.02164426746458963,0.01355446215767527
-4.072685185185185e-05,0.01456617277117602,-0.01436139504359987
-4.071685185185186e-05,0.02164426746458641,-0.01785087719375767
-4.070685185185185e-05,0.03580045685141686,-0.007382430743281081
-4.069685185185185e-05,0.02518331481129643,0.003086015707197095
-4.068685185185185e-05,0.03933950419812366,-0.007382430743281081
-4.067685185185185e-05,0.02518331481129643,-0.01436139504359987
-4.066685185185185e-05,0.02518331481129643,-0.01436139504359987
-4.065685185185185e-05,0.01810522011788282,-0.007382430743281081
-4.064685185185185e-05,0.04995664623824408,-0.01785087719375926
-4.063685185185185e-05,0.03226140950470522,-0.0004034664429686443
-4.062685185185185e-05,0.02164426746459445,-0.01436139504359352
-4.061685185185185e-05,0.02872236215800324,-0.01436139504359987
-4.060685185185185e-05,0.03580045685141686,-0.02482984149407804
-4.059685185185185e-05,0.02518331481130126,-0.02134035934391548
-4.058685185185186e-05,0.03580045685141203,-0.01436139504360304
-4.057685185185185e-05,0.02518331481129643,-0.01436139504359987
-4.056685185185185e-05,0.02518331481129643,-0.0004034664429622969
-4.055685185185185e-05,0.01456617277117602,-0.007382430743281081
-4.054685185185186e-05,0.0358004568514072,-0.007382430743281081
-4.053685185185185e-05,0.01810522011788282,-0.01785087719375926
-4.052685185185185e-05,0.02872236215800324,-0.01087191289344047
-4.051685185185185e-05,0.02872236215800324,-0.01785087719375926
-4.050685185185185e-05,0.02518331481129804,-0.003892948593128037
-4.049685185185185e-05,0.02872236215800324,-0.01785087719375926
-4.048685185185185e-05,0.02872236215800324,-0.007382430743281081
-4.047685185185185e-05,0.03226140950471005,-0.03180880579439683
-4.046685185185185e-05,0.01810522011788926,-0.003892948593129623
-4.045685185185185e-05,0.03226140950471005,-0.02134035934391865
-4.044685185185185e-05,0.03226140950471005,-0.02482984149407804
-4.043685185185185e-05,0.01810522011788282,-0.01087191289344047
-4.042685185185185e-05,0.03226140950470361,0.003086015707187574
-4.041685185185186e-05,0.01810522011788926,-0.01785087719374974
-4.040685185185185e-05,0.03226140950471005,0.003086015707197095
-4.039685185185185e-05,0.04995664623824408,-0.0004034664429622969
-4.038685185185185e-05,0.01810522011788282,-0.007382430743281081
-4.037685185185186e-05,0.02872236215799841,-0.0004034664429654706
-4.036685185185185e-05,0.02164426746458963,-0.02482984149407804
-4.035685185185185e-05,0.02518331481129643,-0.007382430743281081
-4.034685185185185e-05,0.01102712542446921,-0.01087191289344047
-4.033685185185185e-05,0.03226140950470361,-0.0213403593439123
-4.032685185185185e-05,0.01810522011788282,-0.007382430743281081
-4.031685185185185e-05,0.02164426746458963,-0.01087191289344047
-4.030685185185185e-05,0.01456617277117602,-0.007382430743281081
-4.029685185185185e-05,0.03226140950470522,-0.01087191289344206
-4.028685185185185e-05,0.02164426746458963,-0.01436139504359987
-4.027685185185185e-05,0.01810522011788282,-0.01087191289344047
-4.026685185185185e-05,0.02872236215800324,-0.007382430743281081
-4.025685185185185e-05,0.02518331481129482,-0.01436139504359352
-4.024685185185186e-05,0.02164426746459124,-0.0004034664429686443
-4.023685185185185e-05,0.03226140950471005,-0.02134035934391865
-4.022685185185185e-05,0.02872236215800324,-0.02482984149407804
-4.021685185185185e-05,0.02164426746458963,-0.01785087719375926
-4.020685185185186e-05,0.02518331481129482,-0.02482984149407487
-4.019685185185185e-05,0.02164426746458963,-0.01436139504359987
-4.018685185185185e-05,0.03226140950471005,-0.01087191289344047
-4.017685185185185e-05,0.03226140950471005,-0.01087191289344047
-4.016685185185186e-05,0.01456617277118406,0.006575497857348555
-4.015685185185185e-05,0.03933950419812366,-0.003892948593121689
-4.014685185185185e-05,0.02164426746458963,-0.02482984149407804
-4.013685185185185e-05,0.03226140950471005,-0.01785087719375926
-4.012685185185185e-05,0.03226140950471005,-0.01087191289343889
-4.011685185185185e-05,0.03226140950471005,-0.007382430743281081
-4.010685185185185e-05,0.02164426746458963,-0.01436139504359987
-4.009685185185185e-05,0.04641759889153727,-0.01436139504359987
-4.008685185185185e-05,0.02164426746457997,-0.003892948593120102
-4.007685185185185e-05,0.000409983384358447,-0.0004034664429638838
-4.006685185185185e-05,0.01456617277117602,-0.007382430743281081
-4.005685185185185e-05,0.02518331481129643,-0.01087191289344047
-4.004685185185185e-05,0.03226140950470683,-0.01436139504359511
-4.003685185185186e-05,0.02518331481129965,-0.003892948593126449
-4.002685185185185e-05,0.04287855154483047,0.006575497857356487
-4.001685185185185e-05,0.02872236215800324,-0.01785087719375926
-4.000685185185185e-05,0.03226140950471005,-0.01785087719375926
-3.999685185185186e-05,0.03226140950471005,-0.003892948593128037
-3.998685185185185e-05,0.04641759889153727,-0.01087191289344047
-3.997685185185185e-05,0.01456617277117602,-0.01087191289344047
-3.996685185185185e-05,0.01102712542446921,-0.01436139504359987
-3.995685185185185e-05,0.02872236215799841,-0.003892948593115342
-3.994685185185185e-05,0.01810522011788282,0.01006498000751588
-3.993685185185185e-05,0.03933950419812366,-0.01087191289344047
-3.992685185185185e-05,0.02872236215800324,-0.01785087719375926
-3.991685185185185e-05,0.03580045685141525,-0.007382430743289015
-3.990685185185185e-05,0.03226140950471166,-0.02482984149407011
-3.989685185185185e-05,0.03580045685141686,-0.03878777009471561
-3.988685185185185e-05,0.003949030731055598,-0.003892948593121689
-3.987685185185185e-05,0.02872236215800163,-0.02482984149406852
-3.986685185185186e-05,0.02518331481129804,-0.003892948593131211
-3.985685185185185e-05,0.02164426746458963,-0.01436139504359987
-3.984685185185185e-05,0.007488078077762405,-0.01087191289344047
-3.983685185185185e-05,0.03226140950471005,-0.01436139504359987
-3.982685185185186e-05,0.03933950419812044,-0.01087191289344206
-3.981685185185185e-05,0.03580045685141686,-0.01087191289344047
-3.980685185185185e-05,0.02164426746458963,-0.01436139504359987
-3.979685185185185e-05,0.03226140950471005,-0.02482984149407804
-3.978685185185185e-05,0.03226140950471166,-0.007382430743279495
-3.977685185185185e-05,0.03580045685141686,-0.003892948593121689
-3.976685185185185e-05,0.02518331481129643,-0.007382430743281081
-3.975685185185185e-05,0.02872236215800324,-0.01436139504359987
-3.974685185185185e-05,0.01456617277118246,-0.00389294859312645
-3.973685185185185e-05,0.0287223621579968,-0.01436139504359511
-3.972685185185185e-05,0.02518331481129643,-0.003892948593121689
-3.971685185185185e-05,0.007488078077762405,-0.01436139504359987
-3.970685185185185e-05,0.01810522011788443,-0.01436139504359987
-3.969685185185186e-05,0.02164426746458802,-0.01436139504359987
-3.968685185185185e-05,0.03226140950471005,-0.0004034664429622969
-3.967685185185185e-05,0.02518331481129643,-0.01436139504359987
-3.966685185185185e-05,0.03226140950471005,-0.02831932364423743
-3.965685185185186e-05,0.007488078077773668,-0.01785087719376402
-3.964685185185185e-05,0.03933950419812366,-0.03180880579439683
-3.963685185185185e-05,0.01456617277117602,-0.01087191289344047
-3.962685185185185e-05,0.02872236215800324,-0.02482984149407804
-3.961685185185185e-05,0.02164426746459124,-0.0004034664429638838
-3.960685185185185e-05,0.02518331481129643,-0.003892948593121689
-3.959685185185185e-05,0.01102712542446921,-0.003892948593121689
-3.958685185185185e-05,0.03933950419812366,-0.01785087719375926
-3.957685185185185e-05,0.02872236215800485,-0.01087191289344523
-3.956685185185185e-05,0.03226140950470844,-0.02134035934391389
-3.955685185185185e-05,0.03226140950471005,-0.02482984149407804
-3.954685185185185e-05,0.01810522011788282,-0.01087191289344047
-3.953685185185185e-05,0.02518331481129,-0.01785087719375609
-3.952685185185186e-05,0.01102712542447565,-0.01087191289344365
-3.951685185185185e-05,0.02872236215800324,-0.01785087719375926
-3.950685185185185e-05,0.02872236215800324,-0.01436139504359987
-3.949685185185185e-05,-0.003129063962358014,-0.01785087719375926
-3.948685185185186e-05,0.03933950419810435,-0.0004034664429702316
-3.947685185185185e-05,0.01456617277117602,-0.03180880579439683
-3.946685185185185e-05,0.02164426746458963,-0.02134035934391865
-3.945685185185185e-05,0.03580045685141686,-0.02134035934391865
-3.944685185185185e-05,0.02872236215800163,-0.01436139504359669
-3.943685185185185e-05,0.02518331481129643,-0.007382430743281081
-3.942685185185185e-05,0.02518331481129643,-0.007382430743281081
-3.941685185185185e-05,0.04287855154483047,-0.007382430743281081
-3.940685185185185e-05,0.0004099833843584482,-0.01785087719375767
-3.939685185185185e-05,0.02164426746458963,-0.01436139504359987
-3.938685185185185e-05,0.01456617277117602,-0.01087191289344047
-3.937685185185185e-05,0.01810522011788282,-0.003892948593121689
-3.936685185185185e-05,0.02164426746459124,-0.01785087719375767
-3.935685185185186e-05,0.02518331481129482,-0.01436139504360145
-3.934685185185185e-05,0.02164426746458963,0.003086015707197095
-3.933685185185185e-05,0.01102712542446921,-0.003892948593121689
-3.932685185185185e-05,0.02164426746458963,-0.01785087719375926
-3.931685185185186e-05,0.01456617277117924,-0.02134035934391706
-3.930685185185185e-05,0.01102712542446921,-0.007382430743281081
-3.929685185185185e-05,0.02518331481129643,-0.02482984149407804
-3.928685185185185e-05,0.01810522011788282,-0.02831932364423743
-3.927685185185185e-05,0.03226140950470683,-0.01087191289344841
-3.926685185185185e-05,0.02518331481129643,-0.02831932364423743
-3.925685185185185e-05,0.02872236215800324,-0.007382430743281081
-3.924685185185185e-05,0.03226140950471005,-0.01436139504359987
-3.923685185185185e-05,0.02164426746458963,-0.007382430743285841
-3.922685185185185e-05,0.02164426746458963,-0.01785087719375926
-3.921685185185185e-05,0.007488078077762405,-0.01087191289344047
-3.920685185185185e-05,0.03933950419812366,-0.01087191289344047
-3.919685185185185e-05,0.02872236215799359,-0.0004034664429686443
-3.918685185185186e-05,0.007488078077772058,-0.01436139504359352
-3.917685185185185e-05,0.03933950419812366,-0.007382430743281081
-3.916685185185185e-05,0.04287855154483047,-0.01087191289344047
-3.915685185185185e-05,0.02518331481129643,-0.01785087719375926
-3.914685185185186e-05,0.02164426746459124,-0.02831932364423267
-3.913685185185185e-05,0.007488078077762405,-0.003892948593121689
-3.912685185185185e-05,0.03226140950471005,-0.003892948593121689
-3.911685185185185e-05,0.02518331481129643,-0.003892948593121689
-3.910685185185186e-05,0.02518331481129643,-0.0004034664429638838
-3.909685185185185e-05,0.04287855154483047,-0.003892948593121689
-3.908685185185185e-05,0.01810522011788282,-0.01087191289344047
-3.907685185185185e-05,0.02872236215800324,-0.007382430743281081
-3.906685185185185e-05,0.02518331481129804,-0.01087191289344206
-3.905685185185185e-05,0.02872236215800324,-0.01436139504359987
-3.904685185185185e-05,0.01456617277117602,-0.01436139504359987
-3.903685185185185e-05,0.02164426746458963,-0.007382430743281081
-3.902685185185185e-05,0.01810522011788443,-0.01785087719376243
-3.901685185185185e-05,0.02164426746458802,-0.02482984149407487
-3.900685185185185e-05,0.03933950419812366,0.006575497857356487
-3.899685185185185e-05,0.02518331481129643,-0.003892948593121689
-3.898685185185185e-05,0.02164426746459285,0.01006498000751112
-3.897685185185186e-05,0.02872236215800002,-0.0004034664429575369
-3.896685185185185e-05,0.01456617277117602,-0.01436139504359987
-3.895685185185185e-05,0.02164426746458963,-0.007382430743281081
-3.894685185185185e-05,0.03226140950471005,-0.01436139504359987
-3.893685185185186e-05,0.04641759889153083,-0.003892948593126449
-3.892685185185185e-05,0.02164426746458963,-0.02482984149407804
-3.891685185185185e-05,0.01810522011788282,-0.003892948593121689
-3.890685185185185e-05,0.02164426746458963,-0.0004034664429622969
-3.889685185185185e-05,0.02518331481129804,-0.01785087719375133
-3.888685185185185e-05,0.02872236215800324,-0.0004034664429622969
-3.887685185185185e-05,0.02164426746458963,-0.01436139504359987
-3.886685185185185e-05,0.02164426746458963,-0.01436139504359987
-3.885685185185185e-05,0.03226140950470844,-0.01087191289344047
-3.884685185185185e-05,0.02872236215800485,-0.01087191289344047
-3.883685185185185e-05,0.02872236215800324,-0.02482984149407804
-3.882685185185185e-05,0.01810522011788282,0.003086015707197095
-3.881685185185185e-05,0.01810522011788121,-0.02831932364422791
-3.880685185185186e-05,0.01456617277117763,-0.007382430743290602
-3.879685185185185e-05,0.03580045685141686,-0.02134035934391865
-3.878685185185185e-05,0.007488078077762405,-0.01087191289344047
-3.877685185185185e-05,0.02164426746458963,0.003086015707197095
-3.876685185185186e-05,0.02164426746458963,-0.01087191289343413
-3.875685185185185e-05,0.02164426746458963,-0.01087191289344047
-3.874685185185185e-05,0.01456617277117602,-0.02134035934391865
-3.873685185185185e-05,0.03933950419812366,-0.003892948593121689
-3.872685185185185e-05,0.0145661727711728,-0.003892948593123276
-3.871685185185185e-05,0.007488078077762405,-0.007382430743281081
-3.870685185185185e-05,0.02518331481129643,-0.007382430743281081
-3.869685185185185e-05,0.01456617277117602,-0.01785087719375926
-3.868685185185185e-05,0.02164426746459606,-0.01785087719375609
-3.867685185185185e-05,0.03580045685141042,-0.01087191289344365
-3.866685185185185e-05,0.02518331481129643,0.006575497857356487
-3.865685185185185e-05,0.01810522011788282,-0.0004034664429622969
-3.864685185185185e-05,0.01810522011788765,-0.01087191289343889
-3.863685185185186e-05,0.02872236215799841,-0.007382430743282669
-3.862685185185185e-05,0.03580045685141686,-0.007382430743281081
-3.861685185185185e-05,0.007488078077762405,-0.003892948593121689
-3.860685185185185e-05,0.02518331481129643,-0.007382430743281081
-3.859685185185186e-05,0.01102712542447565,-0.007382430743281081
-3.858685185185185e-05,0.01102712542446921,-0.01087191289344047
-3.857685185185185e-05,0.01102712542446921,-0.02831932364423743
-3.856685185185185e-05,0.02164426746458963,0.003086015707197095
-3.855685185185185e-05,0.04287855154481598,0.003086015707190748
-3.854685185185185e-05,0.01102712542446921,-0.01087191289344047
-3.853685185185185e-05,0.000409983384348792,-0.01785087719375926
-3.852685185185185e-05,0.01456617277117602,-0.01785087719375926
-3.851685185185185e-05,0.03226140950469718,-0.0004034664429765784
-3.850685185185185e-05,0.003949030731068472,-0.03180880579438255
-3.849685185185185e-05,0.02872236215800324,0.003086015707197095
-3.848685185185185e-05,0.02164426746458963,0.006575497857356487
-3.847685185185185e-05,0.02518331481129161,-0.01436139504359511
-3.846685185185186e-05,0.01456617277118085,-0.003892948593126449
-3.845685185185185e-05,0.01102712542446921,-0.02134035934391865
-3.844685185185185e-05,0.02164426746458963,-0.003892948593121689
-3.843685185185185e-05,0.02164426746458963,-0.01087191289344047
-3.842685185185186e-05,0.01102712542447404,-0.01087191289344047
-3.841685185185185e-05,0.02872236215800324,-0.01785087719375926
-3.840685185185185e-05,0.007488078077762405,-0.01087191289344047
-3.839685185185185e-05,0.02164426746458963,-0.02831932364423743
-3.838685185185185e-05,0.0004099833843600576,-0.0004034664429622969
-3.837685185185185e-05,0.02518331481129643,-0.0004034664429622969
-3.836685185185185e-05,0.03226140950471005,-0.02134035934391865
-3.835685185185185e-05,0.02164426746458963,0.01006498000751588
-3.834685185185185e-05,0.04287855154482242,0.00657549785735014
-3.833685185185185e-05,0.02518331481129643,-0.007382430743281081
-3.832685185185185e-05,0.03933950419812366,-0.007382430743281081
-3.831685185185185e-05,0.01456617277117602,-0.007382430743281081
-3.830685185185185e-05,0.02872236215800485,-0.01785087719376085
-3.829685185185186e-05,0.03226140950470844,-0.02134035934391706
-3.828685185185185e-05,0.02164426746458963,-0.01785087719375926
-3.827685185185185e-05,0.01456617277117602,-0.003892948593121689
-3.826685185185185e-05,0.01810522011788282,0.006575497857356487
-3.825685185185186e-05,0.02164426746458802,-0.007382430743274734
-3.824685185185185e-05,0.03580045685141686,-0.0004034664429622969
-3.823685185185185e-05,0.04995664623824408,-0.0004034664429622969
-3.822685185185185e-05,0.04995664623824408,-0.0004034664429622969
-3.821685185185186e-05,0.03933950419812849,-0.01436139504359352
-3.820685185185185e-05,-0.01374620600247843,-0.03529828794455622
-3.819685185185185e-05,-0.01374620600247843,-0.03529828794455622
-3.818685185185185e-05,0.02164426746458963,-0.03878777009471561
-3.817685185185185e-05,0.06765188297178938,-0.00389294859310106
-3.816685185185185e-05,0.09242521439872575,0.04147031935895041
-3.815685185185185e-05,0.06411283562507131,0.05193876580942858
-3.814685185185185e-05,0.02872236215800324,0.02053342645799406
-3.813685185185185e-05,-0.03498049008270961,-0.02831932364424219
-3.812685185185186e-05,-0.01374620600248809,-0.03878777009471085
-3.811685185185185e-05,0.007488078077762405,-0.03878777009471561
-3.810685185185185e-05,0.03580045685141686,-0.01436139504359987
-3.809685185185185e-05,0.05349569358495088,0.01704394430783467
-3.808685185185186e-05,0.0428785515448353,-0.003892948593112171
-3.807685185185185e-05,0.03933950419812366,0.01006498000751588
-3.806685185185185e-05,0.04641759889153727,0.003086015707197095
-3.805685185185185e-05,0.01456617277117602,-0.01436139504359987
-3.804685185185186e-05,0.003949030731060425,-0.0318088057943889
-3.803685185185185e-05,0.007488078077762405,-0.01436139504359987
-3.802685185185185e-05,0.02164426746458963,-0.02134035934391865
-3.801685185185185e-05,0.03226140950471005,-0.01785087719375926
-3.800685185185185e-05,0.03226140950471005,-0.0004034664429686443
-3.799685185185185e-05,0.03226140950471005,-0.01436139504359987
-3.798685185185185e-05,0.02872236215800324,-0.007382430743281081
-3.797685185185185e-05,0.04641759889153727,-0.01087191289344047
-3.796685185185185e-05,0.01456617277117602,-0.01436139504360304
-3.795685185185185e-05,0.01456617277117602,-0.02134035934391548
-3.794685185185185e-05,-0.01728525334918524,-0.02482984149407804
-3.793685185185185e-05,0.01456617277117602,-0.02831932364423743
