04 Prototype udvikling/2 akset rotation/Slettede filer/05 H-bridge/Waveform data/overlap issue bjt - 10pF cap pulldown.csv

#Digilent WaveForms Oscilloscope Acquisition
#Device Name: Discovery
#Serial Number: SN:210244626787
#Date Time: 2025-11-05 14:46:40.748
#Sample rate: 1e+08Hz
#Samples: 8192
#Trigger: Source: Channel 1 Type: Edge Condition: Rising Level: 2 V Hyst.: Auto HoldOff: 0 s
#Channel 1: Range: 5 V/div Offset: 0 V Sample Mode: Average
#Channel 2: Range: 5 V/div Offset: 0 V Sample Mode: Average

Time (s),Channel 1 (V),Channel 2 (V)
-4.095631578947368e-05,-0.00666811130906482,0.6346822848860471
-4.094631578947368e-05,-0.05621477416296011,0.5579136775825405
-4.093631578947368e-05,-0.02436334804257471,0.582340052633699
-4.092631578947369e-05,0.02872236215797911,0.6765560706879169
-4.091631578947368e-05,0.0605737882783645,0.7323877850905101
-4.090631578947368e-05,0.07119093031848492,0.7323877850905101
-4.089631578947368e-05,0.06765188297177811,0.7323877850905101
-4.088631578947369e-05,0.03580045685143134,0.6940034814387742
-4.087631578947369e-05,0.01456617277117602,0.6591086599371628
-4.086631578947368e-05,-0.01728525334918524,0.6451507313365252
-4.085631578947368e-05,-0.00666811130906482,0.6346822848860471
-4.084631578947368e-05,0.003949030731063645,0.6416612491863786
-4.083631578947369e-05,0.02164426746458963,0.669577106387641
-4.082631578947368e-05,0.02164426746458963,0.7114508921895537
-4.081631578947368e-05,0.05703474093165769,0.7114508921895537
-4.080631578947368e-05,0.05349569358494283,0.7184298564898614
-4.079631578947369e-05,0.0358004568514249,0.6940034814387679
-4.078631578947368e-05,0.01810522011788282,0.6660876242374816
-4.077631578947368e-05,0.003949030731055598,0.6346822848860471
-4.076631578947368e-05,0.0004099833843552295,0.6346822848860503
-4.075631578947369e-05,0.01456617277116958,0.6416612491863627
-4.074631578947368e-05,0.03933950419812366,0.6835350349882786
-4.073631578947368e-05,0.04287855154483047,0.6870245171384379
-4.072631578947368e-05,0.05703474093165769,0.7114508921895537
-4.071631578947369e-05,0.0464175988915421,0.7044719278892382
-4.070631578947369e-05,0.02518331481129643,0.6800455528381192
-4.069631578947368e-05,0.003949030731055598,0.6556191777870034
-4.068631578947368e-05,0.003949030731055598,0.6451507313365252
-4.067631578947368e-05,0.01102712542447404,0.6311928027358988
-4.066631578947369e-05,0.02164426746458963,0.6556191777870034
-4.065631578947368e-05,0.01810522011788282,0.6870245171384379
-4.064631578947368e-05,0.0605737882783645,0.7184298564898725
-4.063631578947368e-05,0.02518331481129965,0.690513999288591
-4.062631578947369e-05,0.03226140950470683,0.6765560706879661
-4.061631578947368e-05,0.01456617277117602,0.669577106387641
-4.060631578947368e-05,0.01102712542446921,0.6416612491863659
-4.059631578947368e-05,0.003949030731065254,0.6416612491863722
-4.058631578947369e-05,0.02518331481128678,0.6556191777869971
-4.057631578947368e-05,0.01810522011788282,0.6835350349882786
-4.056631578947368e-05,0.03580045685141686,0.6940034814387568
-4.055631578947368e-05,0.05349569358495088,0.7079614100393943
-4.054631578947369e-05,0.02872236215801451,0.6940034814387631
-4.053631578947369e-05,0.03933950419812366,0.6870245171384379
-4.052631578947368e-05,0.02164426746458963,0.6625981420873223
-4.051631578947368e-05,0.01456617277117602,0.6556191777870034
-4.050631578947368e-05,0.01810522011788443,0.6521296956368473
-4.049631578947369e-05,0.02164426746458963,0.6591086599371628
-4.048631578947368e-05,0.03933950419812366,0.6730665885378004
-4.047631578947368e-05,0.04995664623824408,0.6835350349882786
-4.046631578947368e-05,0.04287855154482725,0.6940034814387568
-4.045631578947369e-05,0.03580045685141686,0.6940034814387568
-4.044631578947368e-05,0.02164426746458963,0.6765560706879598
-4.043631578947368e-05,0.01810522011788282,0.6660876242374816
-4.042631578947368e-05,0.02518331481128839,0.64515073133653
-4.041631578947369e-05,0.007488078077770452,0.6556191777869986
-4.040631578947368e-05,0.03933950419812366,0.669577106387641
-4.039631578947368e-05,0.02164426746458963,0.6905139992885974
-4.038631578947368e-05,0.0605737882783645,0.7149403743397131
-4.037631578947369e-05,0.01810522011790213,0.6905139992886085
-4.036631578947369e-05,0.04287855154483047,0.6940034814387568
-4.035631578947368e-05,0.02164426746458963,0.6556191777870034
-4.034631578947368e-05,0.02518331481129643,0.6730665885378004
-4.033631578947368e-05,0.0181052201178796,0.6695771063876442
-4.032631578947369e-05,0.01102712542446921,0.6765560706879598
-4.031631578947368e-05,0.02518331481129643,0.6730665885378004
-4.030631578947368e-05,0.02518331481129643,0.6800455528381192
-4.029631578947368e-05,0.03226140950470683,0.694003481438752
-4.028631578947369e-05,0.02518331481129643,0.6835350349882786
-4.027631578947368e-05,0.02518331481129643,0.669577106387641
-4.026631578947368e-05,0.01810522011788282,0.6905139992885974
-4.025631578947368e-05,-0.01728525334917236,0.6625981420873238
-4.024631578947369e-05,0.01102712542445633,0.66608762423748
-4.023631578947368e-05,0.01102712542446921,0.669577106387641
-4.022631578947368e-05,0.02164426746458963,0.6800455528381192
-4.021631578947368e-05,0.04641759889153727,0.6870245171384379
-4.020631578947369e-05,0.02872236215801129,0.7079614100393847
-4.019631578947368e-05,0.02872236215800324,0.6800455528381192
-4.018631578947368e-05,0.03226140950471005,0.6765560706879598
-4.017631578947368e-05,0.01102712542446921,0.6591086599371628
-4.016631578947369e-05,0.02518331481129,0.6625981420873207
-4.015631578947369e-05,0.01810522011788282,0.669577106387641
-4.014631578947368e-05,0.02518331481129643,0.6835350349882786
-4.013631578947368e-05,0.03226140950471005,0.6974929635889161
-4.012631578947368e-05,0.03933950419812205,0.6835350349882786
-4.011631578947369e-05,0.03580045685141686,0.6835350349882786
-4.010631578947368e-05,0.02518331481129643,0.6730665885378004
-4.009631578947368e-05,0.02518331481129643,0.669577106387641
-4.008631578947368e-05,0.01456617277118085,0.662598142087327
-4.007631578947369e-05,0.02518331481129161,0.6730665885377957
-4.006631578947368e-05,0.02164426746458963,0.6625981420873223
-4.005631578947368e-05,0.02518331481129643,0.6974929635889161
-4.004631578947368e-05,0.04287855154483208,0.6905139992885878
-4.003631578947369e-05,0.04641759889153566,0.6695771063876506
-4.002631578947368e-05,0.01456617277117602,0.669577106387641
-4.001631578947368e-05,0.02518331481129643,0.6730665885378004
-4.000631578947368e-05,0.03226140950471005,0.6730665885378004
-3.999631578947369e-05,0.01810522011788926,0.6660876242374848
-3.998631578947369e-05,0.01810522011788282,0.6730665885378004
-3.997631578947368e-05,0.02872236215800324,0.6556191777870034
-3.996631578947368e-05,0.04287855154483047,0.6835350349882786
-3.995631578947368e-05,0.04287855154482403,0.6800455528381224
-3.994631578947369e-05,0.02872236215800324,0.6870245171384379
-3.993631578947368e-05,0.03226140950471005,0.6765560706879598
-3.992631578947368e-05,0.01456617277117602,0.6730665885378004
-3.991631578947368e-05,0.0287223621579952,0.6835350349882707
-3.990631578947369e-05,0.01102712542447725,0.6660876242374895
-3.989631578947368e-05,0.01456617277117602,0.6730665885378004
-3.988631578947368e-05,0.003949030731055598,0.6870245171384379
-3.987631578947368e-05,0.04995664623822799,0.680045552838116
-3.986631578947369e-05,0.01456617277119211,0.6730665885378037
-3.985631578947368e-05,0.03580045685141686,0.6870245171384379
-3.984631578947368e-05,0.01456617277117602,0.669577106387641
-3.983631578947368e-05,0.02872236215800324,0.6730665885378004
-3.982631578947369e-05,0.01810522011788765,0.6765560706879582
-3.981631578947369e-05,0.007488078077762405,0.6974929635889161
-3.980631578947368e-05,0.02164426746458963,0.669577106387641
-3.979631578947368e-05,0.01810522011788282,0.6730665885378004
-3.978631578947368e-05,0.02164426746458641,0.6730665885377926
-3.977631578947369e-05,0.01456617277117602,0.6556191777870034
-3.976631578947368e-05,0.03933950419812366,0.6625981420873223
-3.975631578947368e-05,0.01102712542446921,0.6625981420873223
-3.974631578947368e-05,0.003949030731058817,0.6486402134866958
-3.973631578947369e-05,0.01102712542446599,0.6730665885377893
-3.972631578947368e-05,0.01456617277117602,0.6730665885378004
-3.971631578947368e-05,0.03226140950471005,0.6660876242374816
-3.970631578947368e-05,0.01810522011788282,0.676556070687955
-3.969631578947369e-05,0.01810522011788282,0.6660876242374864
-3.968631578947368e-05,0.01456617277117602,0.6730665885378004
-3.967631578947368e-05,0.02518331481129643,0.6835350349882786
-3.966631578947368e-05,0.02872236215800324,0.6730665885378004
-3.965631578947369e-05,0.03933950419811883,0.6730665885378004
-3.964631578947369e-05,0.01102712542446921,0.669577106387641
-3.963631578947368e-05,0.02872236215800324,0.6940034814387568
-3.962631578947368e-05,0.02518331481129643,0.669577106387641
-3.961631578947368e-05,0.01810522011788282,0.6800455528381176
-3.960631578947369e-05,0.01810522011788282,0.6765560706879598
-3.959631578947368e-05,0.02518331481129643,0.669577106387641
-3.958631578947368e-05,0.02872236215800324,0.669577106387641
-3.957631578947368e-05,0.003949030731063645,0.6800455528381113
-3.956631578947369e-05,0.02164426746458158,0.6625981420873301
-3.955631578947368e-05,0.01456617277117602,0.704471927889235
-3.954631578947368e-05,0.02872236215800324,0.6625981420873223
-3.953631578947368e-05,0.03226140950470683,0.6730665885377957
-3.952631578947369e-05,0.02518331481129965,0.662598142087327
-3.951631578947368e-05,0.02164426746458963,0.6730665885378004
-3.950631578947368e-05,0.02872236215800324,0.6451507313365252
-3.949631578947368e-05,0.02164426746458963,0.6765560706879598
-3.948631578947369e-05,0.03226140950470522,0.673066588537802
-3.947631578947369e-05,0.02164426746458963,0.6730665885378004
-3.946631578947368e-05,0.02164426746458963,0.6730665885378004
-3.945631578947368e-05,0.01102712542446921,0.6660876242374816
-3.944631578947368e-05,0.01810522011788282,0.6730665885377989
-3.943631578947369e-05,0.01810522011788282,0.669577106387641
-3.942631578947368e-05,0.03226140950471005,0.6660876242374816
-3.941631578947368e-05,0.02872236215800324,0.6835350349882786
-3.940631578947368e-05,0.003949030731065254,0.6765560706879534
-3.939631578947369e-05,0.02518331481129643,0.6625981420873223
-3.938631578947368e-05,0.01456617277117602,0.6730665885378004
-3.937631578947368e-05,0.03933950419812366,0.669577106387641
-3.936631578947368e-05,0.01810522011788926,0.6905139992885847
-3.935631578947369e-05,0.03226140950470361,0.6625981420873349
-3.934631578947368e-05,0.02518331481129643,0.6800455528381192
-3.933631578947368e-05,0.04287855154483047,0.6625981420873223
-3.932631578947368e-05,0.02872236215800324,0.6730665885378004
-3.931631578947369e-05,0.02872236215800324,0.6835350349882738
-3.930631578947369e-05,0.01102712542446921,0.6835350349882786
-3.929631578947368e-05,0.02518331481129643,0.7009824457390755
-3.928631578947368e-05,0.02164426746458963,0.6765560706879598
-3.927631578947368e-05,0.02164426746458802,0.6905139992885878
-3.926631578947369e-05,0.01810522011788282,0.669577106387641
-3.925631578947368e-05,0.03226140950471005,0.669577106387641
-3.924631578947368e-05,0.007488078077762405,0.6765560706879598
-3.923631578947368e-05,0.04287855154482081,0.6800455528381192
-3.922631578947369e-05,0.02164426746458963,0.6800455528381192
-3.921631578947368e-05,0.01102712542446921,0.6730665885378004
-3.920631578947368e-05,0.02518331481129643,0.6765560706879598
-3.919631578947368e-05,0.007488078077762405,0.6695771063876442
-3.918631578947369e-05,0.007488078077762405,0.6765560706879565
-3.917631578947368e-05,0.003949030731055598,0.6730665885378004
-3.916631578947368e-05,0.01456617277117602,0.6591086599371628
-3.915631578947368e-05,0.03226140950471005,0.6800455528381192
-3.914631578947369e-05,0.01810522011788926,0.6974929635889082
-3.913631578947368e-05,0.02164426746458963,0.6974929635889161
-3.912631578947368e-05,0.01456617277117602,0.6870245171384379
-3.911631578947368e-05,0.003949030731055598,0.6591086599371628
-3.910631578947369e-05,0.01810522011787639,0.6486402134866894
-3.909631578947369e-05,0.01102712542446921,0.6591086599371628
-3.908631578947368e-05,0.02164426746458963,0.6835350349882786
-3.907631578947368e-05,0.01102712542446921,0.6800455528381192
-3.906631578947368e-05,0.01810522011788443,0.662598142087319
-3.905631578947369e-05,0.02164426746458963,0.6556191777870034
-3.904631578947368e-05,0.02872236215800324,0.6940034814387568
-3.903631578947368e-05,0.04641759889153727,0.7149403743397131
-3.902631578947368e-05,0.003949030731060426,0.6835350349882675
-3.901631578947369e-05,0.01456617277117119,0.6591086599371739
-3.900631578947368e-05,0.02518331481129643,0.6521296956368441
-3.899631578947368e-05,0.02164426746458963,0.6591086599371628
-3.898631578947368e-05,0.0181052201178796,0.6870245171384364
-3.897631578947369e-05,0.01102712542447243,0.6835350349882802
-3.896631578947368e-05,0.02872236215800324,0.6940034814387568
-3.895631578947368e-05,0.01102712542446921,0.6835350349882786
-3.894631578947368e-05,0.007488078077762405,0.6521296956368441
-3.893631578947369e-05,0.02518331481128839,0.6625981420873175
-3.892631578947369e-05,0.01102712542446921,0.6730665885378004
-3.891631578947368e-05,0.02164426746458963,0.6660876242374816
-3.890631578947368e-05,0.02872236215800324,0.6765560706879598
-3.889631578947368e-05,0.01456617277117924,0.6905139992885847
-3.888631578947369e-05,0.02164426746458963,0.6625981420873223
-3.887631578947368e-05,0.02872236215800324,0.6800455528381192
-3.886631578947368e-05,0.007488078077762405,0.6660876242374816
-3.885631578947368e-05,0.01456617277118567,0.6730665885377972
-3.884631578947369e-05,0.0358004568514072,0.6660876242374848
-3.883631578947368e-05,0.02164426746458963,0.6800455528381192
-3.882631578947368e-05,0.007488078077762405,0.6800455528381192
-3.881631578947368e-05,0.01810522011787639,0.6835350349882834
-3.880631578947369e-05,0.003949030731062035,0.694003481438752
-3.879631578947368e-05,0.03933950419812366,0.6800455528381192
-3.878631578947368e-05,0.01810522011788282,0.6905139992885974
-3.877631578947368e-05,0.01810522011788282,0.6800455528381192
-3.876631578947369e-05,0.01456617277117763,0.6660876242374879
-3.875631578947369e-05,0.007488078077762405,0.669577106387641
-3.874631578947368e-05,0.02164426746458963,0.6591086599371628
-3.873631578947368e-05,0.03933950419812366,0.6800455528381192
-3.872631578947368e-05,0.03226140950471166,0.6905139992885989
-3.871631578947369e-05,0.03580045685141686,0.6940034814387568
-3.870631578947368e-05,0.007488078077762405,0.6625981420873223
-3.869631578947368e-05,0.007488078077762405,0.6416612491863659
-3.868631578947368e-05,0.0216442674645848,0.6591086599371692
-3.867631578947369e-05,0.01102712542447404,0.6730665885377941
-3.866631578947368e-05,0.03933950419812366,0.7009824457390755
-3.865631578947368e-05,0.03933950419812366,0.6974929635889161
-3.864631578947368e-05,0.02518331481129321,0.6765560706879502
-3.863631578947369e-05,0.01810522011788604,0.655619177787013
-3.862631578947368e-05,0.003949030731055598,0.6521296956368441
-3.861631578947368e-05,0.01456617277117602,0.6556191777870034
-3.860631578947368e-05,0.02518331481129643,0.6905139992885974
-3.859631578947369e-05,0.03226140950470683,0.6974929635889129
-3.858631578947369e-05,0.01102712542446921,0.6660876242374816
-3.857631578947368e-05,0.01456617277117602,0.6556191777870034
-3.856631578947368e-05,0.01102712542446921,0.6940034814387568
-3.855631578947368e-05,0.02164426746459285,0.6765560706879676
-3.854631578947369e-05,0.02872236215800324,0.6940034814387568
-3.853631578947368e-05,0.02164426746458963,0.6625981420873223
-3.852631578947368e-05,0.03226140950471005,0.6835350349882786
-3.851631578947368e-05,0.01102712542447565,0.6800455528381192
-3.850631578947369e-05,0.02518331481129,0.6800455528381192
-3.849631578947368e-05,0.02518331481129643,0.6625981420873223
-3.848631578947368e-05,0.01810522011788282,0.669577106387641
-3.847631578947368e-05,0.02518331481129161,0.6905139992885878
-3.846631578947369e-05,0.01456617277118085,0.6695771063876506
-3.845631578947368e-05,0.02164426746458963,0.6870245171384379
-3.844631578947368e-05,0.007488078077762405,0.6625981420873223
-3.843631578947368e-05,0.01102712542446921,0.6660876242374816
-3.842631578947369e-05,0.0216442674645848,0.6625981420873238
-3.841631578947369e-05,0.007488078077762405,0.6730665885378004
-3.840631578947368e-05,0.02164426746458963,0.6556191777870034
-3.839631578947368e-05,0.02518331481129643,0.6800455528381192
-3.838631578947368e-05,0.02164426746459124,0.680045552838116
-3.837631578947369e-05,0.02518331481129643,0.6730665885378004
-3.836631578947368e-05,0.02164426746458963,0.6730665885378004
-3.835631578947368e-05,0.01456617277117602,0.6765560706879598
-3.834631578947368e-05,0.01810522011787799,0.6591086599371724
-3.833631578947369e-05,0.007488078077762405,0.6800455528381192
-3.832631578947368e-05,0.02518331481129643,0.6800455528381192
-3.831631578947368e-05,0.003949030731055598,0.6625981420873223
-3.830631578947368e-05,0.02164426746458802,0.6730665885378131
-3.829631578947369e-05,0.01810522011788443,0.7009824457390629
-3.828631578947368e-05,0.03226140950471005,0.6660876242374816
-3.827631578947368e-05,0.02518331481129643,0.6870245171384379
-3.826631578947368e-05,0.01810522011788282,0.669577106387641
-3.825631578947369e-05,0.03226140950470361,0.6625981420873255
-3.824631578947369e-05,0.03580045685141686,0.6835350349882786
-3.823631578947368e-05,0.02518331481129643,0.6625981420873223
-3.822631578947368e-05,0.04641759889153727,0.669577106387641
-3.821631578947369e-05,0.0110271254244853,0.6835350349882723
-3.820631578947369e-05,0.01810522011788282,0.6625981420873223
-3.819631578947368e-05,0.01810522011788282,0.6870245171384379
-3.818631578947368e-05,0.02518331481129643,0.6730665885378004
-3.817631578947368e-05,0.01456617277117441,0.6835350349882834
-3.816631578947369e-05,0.01102712542446921,0.6940034814387568
-3.815631578947368e-05,0.01456617277117602,0.6660876242374816
-3.814631578947368e-05,0.01810522011788282,0.6870245171384379
-3.813631578947368e-05,0.01102712542447726,0.6800455528381129
-3.812631578947369e-05,0.0287223621579952,0.6660876242374879
-3.811631578947368e-05,0.01810522011788282,0.669577106387641
-3.810631578947368e-05,0.02518331481129643,0.6730665885378004
-3.809631578947368e-05,0.01456617277117602,0.6765560706879598
-3.808631578947369e-05,0.0287223621579968,0.6625981420873286
-3.807631578947368e-05,0.01102712542446921,0.669577106387641
-3.806631578947368e-05,0.01810522011788282,0.6765560706879598
-3.805631578947368e-05,0.02518331481129643,0.669577106387641
-3.804631578947369e-05,0.02518331481129643,0.6974929635889034
-3.803631578947369e-05,0.02518331481129643,0.6625981420873223
-3.802631578947368e-05,0.01810522011788282,0.6800455528381192
-3.801631578947368e-05,0.01810522011788282,0.6625981420873223
-3.800631578947368e-05,0.01102712542447565,0.6695771063876395
-3.799631578947369e-05,0.02518331481129643,0.6660876242374816
-3.798631578947368e-05,0.01102712542446921,0.6870245171384379
-3.797631578947368e-05,0.01456617277117602,0.6730665885378004
-3.796631578947368e-05,0.01456617277118728,0.6625981420873255
-3.795631578947369e-05,0.0393395041981124,0.6695771063876378
-3.794631578947368e-05,0.03226140950471005,0.6974929635889161
-3.793631578947368e-05,0.01456617277117602,0.6556191777870034
-3.792631578947368e-05,0.01810522011788765,0.6660876242374831
-3.791631578947369e-05,0.02872236215799841,0.6695771063876395
-3.790631578947368e-05,0.02872236215800324,0.6730665885378004
-3.789631578947368e-05,0.02518331481129643,0.6765560706879598
-3.788631578947368e-05,0.01456617277117602,0.6660876242374816
-3.787631578947369e-05,0.04287855154481759,0.6660876242374816
-3.786631578947369e-05,0.02164426746458963,0.6730665885378004
-3.785631578947368e-05,0.01102712542446921,0.6591086599371628
-3.784631578947368e-05,0.02872236215800324,0.669577106387641
-3.783631578947368e-05,0.01456617277117441,0.68702451713843
-3.782631578947369e-05,0.01102712542446921,0.669577106387641
-3.781631578947368e-05,0.03580045685141686,0.6940034814387568
-3.780631578947368e-05,0.01456617277117602,0.669577106387641
